<?xml version="1.0" standalone="no"?>
<!DOCTYPE svg PUBLIC "-//W3C//DTD SVG 1.1//EN" "http://www.w3.org/Graphics/SVG/1.1/DTD/svg11.dtd">
<svg xmlns="http://www.w3.org/2000/svg">
<metadata>Copyright (C) 2017 by original authors @ fontello.com</metadata>
<defs>
<font id="fontello" horiz-adv-x="1000" >
<font-face font-family="fontello" font-weight="400" font-stretch="normal" units-per-em="1000" ascent="850" descent="-150" />
<missing-glyph horiz-adv-x="1000" />
<glyph glyph-name="heart" unicode="&#xe800;" d="M500-79q-14 0-25 10l-348 336q-5 5-15 15t-31 37-38 54-30 67-13 77q0 123 71 192t196 70q34 0 70-12t67-33 54-38 42-38q20 20 42 38t54 38 67 33 70 12q125 0 196-70t71-192q0-123-128-251l-347-335q-10-10-25-10z" horiz-adv-x="1000" />

<glyph glyph-name="star" unicode="&#xe801;" d="M929 489q0-12-15-27l-202-197 48-279q0-4 0-12 0-11-6-19t-17-9q-10 0-22 7l-251 132-250-132q-12-7-23-7-11 0-17 9t-6 19q0 4 1 12l48 279-203 197q-14 15-14 27 0 21 31 26l280 40 126 254q11 23 27 23t28-23l125-254 280-40q32-5 32-26z" horiz-adv-x="928.6" />

<glyph glyph-name="clock" unicode="&#xe802;" d="M460 810q190 0 325-135t135-325-135-325-325-135-325 135-135 325 135 325 325 135z m0-820q150 0 255 106t105 254q0 150-105 255t-255 105q-148 0-254-105t-106-255q0-148 106-254t254-106z m36 620l0-244 150-150-50-50-170 170 0 274 70 0z" horiz-adv-x="920" />

<glyph glyph-name="money" unicode="&#xe803;" d="M3 243q31 97 107 173 59 61 203 145 129 74 178 123 55 55 74 121 6 16 16 27 14 12 29 16 35 8 61-16l312-312q26-27 16-63-31-99-108-173-58-61-203-145-129-74-177-123-55-53-75-121-6-16-15-27-14-12-30-16-35-8-60 16l-313 312q-25 27-15 63z m60-18l99-99 115-115 99-99q25 79 84 140t128 102l138 80t129 101 83 140l-157 157-155 155q-24-78-83-139t-129-102l-139-80t-128-101-84-140z m274-199l21 29q22 27 47 53 22 23 55 49 11 9 21 0 12-12 0-24l-2 0q-31-25-52-47-24-23-43-48l-20-28q-2-2-2-4-12-12-23 0-8 10-2 20z m27 359q2 18 10 33 8 18 19 32 0 2-5 5-4 2-4 7t4 10 8 5 7-4q4-4 8-6 8 8 20 16t28 12 29 1 24-15q8-8 8-18t-8-15q-5-6-15-4-6 2-18 4-9 4-20 3t-23-11q20-20 51-57 14 8 31 14 16 6 32 8t31-3 31-17q14-12 20-25 4-14 2-30 0-15-10-33-8-19-22-37 8-6 16-13 4-2 5-7t-3-9-9-5-9 3q-9 8-15 16-18-18-35-24-16-6-34-6-15 2-28 8t-20 15-8 17 8 16 13 7 13-3 13-8 13-7 17 0 20 12q-21 21-56 62-32-17-65-19-29-2-50 15-14 12-20 26t-4 29z m42 11q-1-7 1-14t8-10q10-10 22-9t33 10q-30 32-49 51-6-8-10-14t-5-14z m112 143q-9 10 0 22 2 2 4 2 32 25 53 47 23 23 43 49l19 27q2 4 4 4 12 12 22 0 10-10 2-22l-22-29q-21-27-47-53-21-23-54-48-12-10-24 1z m4-195q32-35 53-56 6 5 10 13t6 16 0 14-9 14-15 9-15 1-16-5q-4-2-14-6z" horiz-adv-x="1001" />

<glyph glyph-name="right-open-mini" unicode="&#xe804;" d="M13 180l158 170-158 172q-26 26 0 48 26 26 48 0l192-194q24-26 0-50l-192-194q-22-26-48 0-26 22 0 48z" horiz-adv-x="265" />

<glyph glyph-name="phone" unicode="&#xe805;" d="M786 158q0-15-6-39t-12-38q-11-28-68-60-52-28-103-28-15 0-30 2t-32 7-26 8-31 11-28 10q-54 20-97 47-71 44-148 120t-120 148q-27 43-46 97-2 5-10 28t-12 31-8 26-7 32-2 29q0 52 29 104 31 57 59 68 14 6 38 12t39 6q8 0 12-2 10-3 30-42 6-11 16-31t20-35 17-30q2-2 10-14t12-20 4-16q0-11-16-27t-35-31-34-30-16-25q0-5 3-13t4-11 8-14 7-10q42-77 97-132t131-97q1 0 10-6t14-8 11-5 13-2q10 0 25 16t30 34 31 35 28 16q7 0 15-4t20-12 14-10q14-8 30-17t36-20 30-17q39-19 42-29 2-4 2-12z" horiz-adv-x="785.7" />

<glyph glyph-name="address" unicode="&#xe806;" d="M426 800q20 0 20-20l0-860q0-20-20-20l-46 0q-20 0-20 20l0 440-176 0q-16 0-28 6-12 2-26 12l-120 82q-10 6-10 16t10 16l120 82q14 10 26 12 8 4 28 4l176 0 0 190q0 20 20 20l46 0z m564-208q10-6 10-16t-10-16l-118-82q-22-12-26-12-14-6-28-6l-302 0-40 230 342 0q18 0 28-4t26-12z" horiz-adv-x="1000" />

<glyph glyph-name="hospital" unicode="&#xe821;" d="M300 725c-28 0-50-22-50-50l0-200-200 0c-28 0-50-22-50-50l0-150c0-28 22-50 50-50l200 0 0-200c0-28 22-50 50-50l150 0c28 0 50 22 50 50l0 200 200 0c28 0 50 22 50 50l0 150c0 28-22 50-50 50l-200 0 0 200c0 28-22 50-50 50z" horiz-adv-x="750" />

<glyph glyph-name="user-secret" unicode="&#xf21b;" d="M321-7l54 250-54 71-71 36z m143 0l72 357-72-36-53-71z m90 564q-1 2-3 3-5 4-53 4-39 0-93-10-4-1-12-1t-12 1q-54 10-93 10-48 0-54-4-1-1-2-3 1-11 2-16 2-1 5-3t4-6q1-2 4-11t4-12 4-9 5-10 5-8 7-7 7-6 10-4 12-2 13-1q20 0 33 7t18 16 8 20 7 16 10 7h6q6 0 10-7t6-16 9-20 18-16 33-7q7 0 13 1t12 2 9 4 8 6 7 7 5 8 5 10 4 9 4 12 4 11q1 4 4 6t4 3q2 5 3 16z m232-491q0-68-41-106t-108-39h-488q-67 0-108 39t-41 106q0 34 3 66t10 70 21 69 36 58 52 41l-51 123h120q-12 36-12 71 0 7 1 18-109 23-109 54 0 32 118 55 9 35 28 75t40 63q18 21 42 21 17 0 47-17t47-18 47 18 47 17q24 0 42-21 20-23 39-63t29-75q117-23 117-55 0-31-108-54 4-45-11-89h119l-45-126q35-18 60-54t36-80 16-84 5-83z" horiz-adv-x="857.1" />

<glyph glyph-name="whatsapp" unicode="&#xf232;" d="M550 307q7 0 54-25t50-30q1-2 1-8 0-18-9-42-9-22-40-37t-57-15q-32 0-106 35-55 25-95 66t-82 103q-41 60-40 108v5q2 50 41 88 14 12 29 12 4 0 10-1t11-1q11 0 15-3t8-16q5-11 19-49t14-41q0-12-19-33t-20-26q0-3 3-8 19-41 57-76 31-30 84-57 7-4 13-4 8 0 30 27t29 28z m-114-296q71 0 136 28t112 74 75 112 28 136-28 136-75 112-112 75-136 28-135-28-112-75-75-112-28-136q0-113 67-205l-44-130 135 43q88-58 192-58z m0 771q86 0 164-34t134-89 90-135 33-163-33-163-90-134-134-90-164-34q-108 0-203 53l-233-75 76 226q-60 99-60 217 0 86 33 163t90 135 134 89 163 34z" horiz-adv-x="857.1" />
</font>
</defs>
</svg>